; RUN: opt < %s -instsimplify -S | FileCheck %s

define i1 @add(i1 %x) {
; CHECK: @add
  %z = add i1 %x, %x
  ret i1 %z
; CHECK: ret i1 false
}

define i1 @sub(i1 %x) {
; CHECK: @sub
  %z = sub i1 false, %x
  ret i1 %z
; CHECK: ret i1 %x
}

define i1 @mul(i1 %x) {
; CHECK: @mul
  %z = mul i1 %x, %x
  ret i1 %z
; CHECK: ret i1 %x
}
